-- Merging decision tree log ---
manifest
ADDED from /Users/imac/Downloads/Fluttersdk/flutter-1.22.5/.pub-cache/hosted/pub.dartlang.org/background_location-0.3.1/android/src/main/AndroidManifest.xml:1:1-16:12
INJECTED from /Users/imac/Downloads/Fluttersdk/flutter-1.22.5/.pub-cache/hosted/pub.dartlang.org/background_location-0.3.1/android/src/main/AndroidManifest.xml:1:1-16:12
INJECTED from /Users/imac/Downloads/Fluttersdk/flutter-1.22.5/.pub-cache/hosted/pub.dartlang.org/background_location-0.3.1/android/src/main/AndroidManifest.xml:1:1-16:12
	package
		ADDED from /Users/imac/Downloads/Fluttersdk/flutter-1.22.5/.pub-cache/hosted/pub.dartlang.org/background_location-0.3.1/android/src/main/AndroidManifest.xml:2:3-46
		INJECTED from /Users/imac/Downloads/Fluttersdk/flutter-1.22.5/.pub-cache/hosted/pub.dartlang.org/background_location-0.3.1/android/src/main/AndroidManifest.xml
		INJECTED from /Users/imac/Downloads/Fluttersdk/flutter-1.22.5/.pub-cache/hosted/pub.dartlang.org/background_location-0.3.1/android/src/main/AndroidManifest.xml
	xmlns:android
		ADDED from /Users/imac/Downloads/Fluttersdk/flutter-1.22.5/.pub-cache/hosted/pub.dartlang.org/background_location-0.3.1/android/src/main/AndroidManifest.xml:1:11-69
uses-permission#android.permission.ACCESS_COARSE_LOCATION
ADDED from /Users/imac/Downloads/Fluttersdk/flutter-1.22.5/.pub-cache/hosted/pub.dartlang.org/background_location-0.3.1/android/src/main/AndroidManifest.xml:4:5-81
	android:name
		ADDED from /Users/imac/Downloads/Fluttersdk/flutter-1.22.5/.pub-cache/hosted/pub.dartlang.org/background_location-0.3.1/android/src/main/AndroidManifest.xml:4:22-78
uses-permission#android.permission.ACCESS_FINE_LOCATION
ADDED from /Users/imac/Downloads/Fluttersdk/flutter-1.22.5/.pub-cache/hosted/pub.dartlang.org/background_location-0.3.1/android/src/main/AndroidManifest.xml:5:5-79
	android:name
		ADDED from /Users/imac/Downloads/Fluttersdk/flutter-1.22.5/.pub-cache/hosted/pub.dartlang.org/background_location-0.3.1/android/src/main/AndroidManifest.xml:5:22-76
uses-permission#android.permission.FOREGROUND_SERVICE
ADDED from /Users/imac/Downloads/Fluttersdk/flutter-1.22.5/.pub-cache/hosted/pub.dartlang.org/background_location-0.3.1/android/src/main/AndroidManifest.xml:6:5-77
	android:name
		ADDED from /Users/imac/Downloads/Fluttersdk/flutter-1.22.5/.pub-cache/hosted/pub.dartlang.org/background_location-0.3.1/android/src/main/AndroidManifest.xml:6:22-74
uses-permission#android.permission.ACCESS_BACKGROUND_LOCATION
ADDED from /Users/imac/Downloads/Fluttersdk/flutter-1.22.5/.pub-cache/hosted/pub.dartlang.org/background_location-0.3.1/android/src/main/AndroidManifest.xml:7:5-84
	android:name
		ADDED from /Users/imac/Downloads/Fluttersdk/flutter-1.22.5/.pub-cache/hosted/pub.dartlang.org/background_location-0.3.1/android/src/main/AndroidManifest.xml:7:22-82
application
ADDED from /Users/imac/Downloads/Fluttersdk/flutter-1.22.5/.pub-cache/hosted/pub.dartlang.org/background_location-0.3.1/android/src/main/AndroidManifest.xml:9:5-15:19
service#com.almoullim.background_location.LocationUpdatesService
ADDED from /Users/imac/Downloads/Fluttersdk/flutter-1.22.5/.pub-cache/hosted/pub.dartlang.org/background_location-0.3.1/android/src/main/AndroidManifest.xml:10:9-14:37
	android:enabled
		ADDED from /Users/imac/Downloads/Fluttersdk/flutter-1.22.5/.pub-cache/hosted/pub.dartlang.org/background_location-0.3.1/android/src/main/AndroidManifest.xml:12:13-35
	android:exported
		ADDED from /Users/imac/Downloads/Fluttersdk/flutter-1.22.5/.pub-cache/hosted/pub.dartlang.org/background_location-0.3.1/android/src/main/AndroidManifest.xml:13:13-36
	android:permission
		ADDED from /Users/imac/Downloads/Fluttersdk/flutter-1.22.5/.pub-cache/hosted/pub.dartlang.org/background_location-0.3.1/android/src/main/AndroidManifest.xml:14:13-34
	android:name
		ADDED from /Users/imac/Downloads/Fluttersdk/flutter-1.22.5/.pub-cache/hosted/pub.dartlang.org/background_location-0.3.1/android/src/main/AndroidManifest.xml:11:13-51
uses-sdk
INJECTED from /Users/imac/Downloads/Fluttersdk/flutter-1.22.5/.pub-cache/hosted/pub.dartlang.org/background_location-0.3.1/android/src/main/AndroidManifest.xml reason: use-sdk injection requested
INJECTED from /Users/imac/Downloads/Fluttersdk/flutter-1.22.5/.pub-cache/hosted/pub.dartlang.org/background_location-0.3.1/android/src/main/AndroidManifest.xml
INJECTED from /Users/imac/Downloads/Fluttersdk/flutter-1.22.5/.pub-cache/hosted/pub.dartlang.org/background_location-0.3.1/android/src/main/AndroidManifest.xml
	android:minSdkVersion
		INJECTED from /Users/imac/Downloads/Fluttersdk/flutter-1.22.5/.pub-cache/hosted/pub.dartlang.org/background_location-0.3.1/android/src/main/AndroidManifest.xml
		ADDED from /Users/imac/Downloads/Fluttersdk/flutter-1.22.5/.pub-cache/hosted/pub.dartlang.org/background_location-0.3.1/android/src/main/AndroidManifest.xml
		INJECTED from /Users/imac/Downloads/Fluttersdk/flutter-1.22.5/.pub-cache/hosted/pub.dartlang.org/background_location-0.3.1/android/src/main/AndroidManifest.xml
