{
  "configVersion": 2,
  "packages": [
    {
      "name": "_fe_analyzer_shared",
      "rootUri": "file:///Users/imac/Downloads/Fluttersdk/flutter-1.22.5/.pub-cache/hosted/pub.dartlang.org/_fe_analyzer_shared-14.0.0",
      "packageUri": "lib/",
      "languageVersion": "2.2"
    },
    {
      "name": "agora_rtc_engine",
      "rootUri": "file:///Users/imac/Downloads/Fluttersdk/flutter-1.22.5/.pub-cache/hosted/pub.dartlang.org/agora_rtc_engine-3.3.3",
      "packageUri": "lib/",
      "languageVersion": "2.7"
    },
    {
      "name": "analyzer",
      "rootUri": "file:///Users/imac/Downloads/Fluttersdk/flutter-1.22.5/.pub-cache/hosted/pub.dartlang.org/analyzer-0.41.2",
      "packageUri": "lib/",
      "languageVersion": "2.7"
    },
    {
      "name": "archive",
      "rootUri": "file:///Users/imac/Downloads/Fluttersdk/flutter-1.22.5/.pub-cache/hosted/pub.dartlang.org/archive-2.0.13",
      "packageUri": "lib/",
      "languageVersion": "2.0"
    },
    {
      "name": "args",
      "rootUri": "file:///Users/imac/Downloads/Fluttersdk/flutter-1.22.5/.pub-cache/hosted/pub.dartlang.org/args-1.6.0",
      "packageUri": "lib/",
      "languageVersion": "2.3"
    },
    {
      "name": "async",
      "rootUri": "file:///Users/imac/Downloads/Fluttersdk/flutter-1.22.5/.pub-cache/hosted/pub.dartlang.org/async-2.5.0-nullsafety.1",
      "packageUri": "lib/",
      "languageVersion": "2.10"
    },
    {
      "name": "audio_session",
      "rootUri": "file:///Users/imac/Downloads/Fluttersdk/flutter-1.22.5/.pub-cache/hosted/pub.dartlang.org/audio_session-0.0.11",
      "packageUri": "lib/",
      "languageVersion": "2.7"
    },
    {
      "name": "audio_video_progress_bar",
      "rootUri": "file:///Users/imac/Downloads/Fluttersdk/flutter-1.22.5/.pub-cache/hosted/pub.dartlang.org/audio_video_progress_bar-0.1.0",
      "packageUri": "lib/",
      "languageVersion": "2.7"
    },
    {
      "name": "audioplayers",
      "rootUri": "file:///Users/imac/Downloads/Fluttersdk/flutter-1.22.5/.pub-cache/hosted/pub.dartlang.org/audioplayers-0.17.4",
      "packageUri": "lib/",
      "languageVersion": "2.6"
    },
    {
      "name": "background_location",
      "rootUri": "file:///Users/imac/Downloads/Fluttersdk/flutter-1.22.5/.pub-cache/hosted/pub.dartlang.org/background_location-0.3.1",
      "packageUri": "lib/",
      "languageVersion": "2.1"
    },
    {
      "name": "boolean_selector",
      "rootUri": "file:///Users/imac/Downloads/Fluttersdk/flutter-1.22.5/.pub-cache/hosted/pub.dartlang.org/boolean_selector-2.1.0-nullsafety.1",
      "packageUri": "lib/",
      "languageVersion": "2.10"
    },
    {
      "name": "build",
      "rootUri": "file:///Users/imac/Downloads/Fluttersdk/flutter-1.22.5/.pub-cache/hosted/pub.dartlang.org/build-1.6.2",
      "packageUri": "lib/",
      "languageVersion": "2.9"
    },
    {
      "name": "build_config",
      "rootUri": "file:///Users/imac/Downloads/Fluttersdk/flutter-1.22.5/.pub-cache/hosted/pub.dartlang.org/build_config-0.4.5",
      "packageUri": "lib/",
      "languageVersion": "2.9"
    },
    {
      "name": "build_daemon",
      "rootUri": "file:///Users/imac/Downloads/Fluttersdk/flutter-1.22.5/.pub-cache/hosted/pub.dartlang.org/build_daemon-2.1.7",
      "packageUri": "lib/",
      "languageVersion": "2.9"
    },
    {
      "name": "build_resolvers",
      "rootUri": "file:///Users/imac/Downloads/Fluttersdk/flutter-1.22.5/.pub-cache/hosted/pub.dartlang.org/build_resolvers-1.5.3",
      "packageUri": "lib/",
      "languageVersion": "2.9"
    },
    {
      "name": "build_runner",
      "rootUri": "file:///Users/imac/Downloads/Fluttersdk/flutter-1.22.5/.pub-cache/hosted/pub.dartlang.org/build_runner-1.11.1",
      "packageUri": "lib/",
      "languageVersion": "2.10"
    },
    {
      "name": "build_runner_core",
      "rootUri": "file:///Users/imac/Downloads/Fluttersdk/flutter-1.22.5/.pub-cache/hosted/pub.dartlang.org/build_runner_core-6.1.7",
      "packageUri": "lib/",
      "languageVersion": "2.9"
    },
    {
      "name": "built_collection",
      "rootUri": "file:///Users/imac/Downloads/Fluttersdk/flutter-1.22.5/.pub-cache/hosted/pub.dartlang.org/built_collection-4.3.2",
      "packageUri": "lib/",
      "languageVersion": "2.6"
    },
    {
      "name": "built_value",
      "rootUri": "file:///Users/imac/Downloads/Fluttersdk/flutter-1.22.5/.pub-cache/hosted/pub.dartlang.org/built_value-7.1.0",
      "packageUri": "lib/",
      "languageVersion": "2.3"
    },
    {
      "name": "cached_network_image",
      "rootUri": "file:///Users/imac/Downloads/Fluttersdk/flutter-1.22.5/.pub-cache/hosted/pub.dartlang.org/cached_network_image-2.5.1",
      "packageUri": "lib/",
      "languageVersion": "2.10"
    },
    {
      "name": "callkeep",
      "rootUri": "file:///Users/imac/Downloads/Fluttersdk/flutter-1.22.5/.pub-cache/hosted/pub.dartlang.org/callkeep-0.2.4",
      "packageUri": "lib/",
      "languageVersion": "2.2"
    },
    {
      "name": "carousel_slider",
      "rootUri": "file:///Users/imac/Downloads/Fluttersdk/flutter-1.22.5/.pub-cache/hosted/pub.dartlang.org/carousel_slider-3.0.0",
      "packageUri": "lib/",
      "languageVersion": "2.6"
    },
    {
      "name": "characters",
      "rootUri": "file:///Users/imac/Downloads/Fluttersdk/flutter-1.22.5/.pub-cache/hosted/pub.dartlang.org/characters-1.1.0-nullsafety.3",
      "packageUri": "lib/",
      "languageVersion": "2.10"
    },
    {
      "name": "charcode",
      "rootUri": "file:///Users/imac/Downloads/Fluttersdk/flutter-1.22.5/.pub-cache/hosted/pub.dartlang.org/charcode-1.2.0-nullsafety.1",
      "packageUri": "lib/",
      "languageVersion": "2.10"
    },
    {
      "name": "checked_yaml",
      "rootUri": "file:///Users/imac/Downloads/Fluttersdk/flutter-1.22.5/.pub-cache/hosted/pub.dartlang.org/checked_yaml-1.0.4",
      "packageUri": "lib/",
      "languageVersion": "2.7"
    },
    {
      "name": "cli_util",
      "rootUri": "file:///Users/imac/Downloads/Fluttersdk/flutter-1.22.5/.pub-cache/hosted/pub.dartlang.org/cli_util-0.2.0",
      "packageUri": "lib/",
      "languageVersion": "2.0"
    },
    {
      "name": "clock",
      "rootUri": "file:///Users/imac/Downloads/Fluttersdk/flutter-1.22.5/.pub-cache/hosted/pub.dartlang.org/clock-1.1.0-nullsafety.1",
      "packageUri": "lib/",
      "languageVersion": "2.10"
    },
    {
      "name": "cloud_firestore",
      "rootUri": "file:///Users/imac/Downloads/Fluttersdk/flutter-1.22.5/.pub-cache/hosted/pub.dartlang.org/cloud_firestore-0.14.4",
      "packageUri": "lib/",
      "languageVersion": "2.1"
    },
    {
      "name": "cloud_firestore_platform_interface",
      "rootUri": "file:///Users/imac/Downloads/Fluttersdk/flutter-1.22.5/.pub-cache/hosted/pub.dartlang.org/cloud_firestore_platform_interface-2.2.1",
      "packageUri": "lib/",
      "languageVersion": "2.0"
    },
    {
      "name": "cloud_firestore_web",
      "rootUri": "file:///Users/imac/Downloads/Fluttersdk/flutter-1.22.5/.pub-cache/hosted/pub.dartlang.org/cloud_firestore_web-0.2.1+2",
      "packageUri": "lib/",
      "languageVersion": "2.1"
    },
    {
      "name": "code_builder",
      "rootUri": "file:///Users/imac/Downloads/Fluttersdk/flutter-1.22.5/.pub-cache/hosted/pub.dartlang.org/code_builder-3.7.0",
      "packageUri": "lib/",
      "languageVersion": "2.7"
    },
    {
      "name": "collection",
      "rootUri": "file:///Users/imac/Downloads/Fluttersdk/flutter-1.22.5/.pub-cache/hosted/pub.dartlang.org/collection-1.15.0-nullsafety.3",
      "packageUri": "lib/",
      "languageVersion": "2.10"
    },
    {
      "name": "connectivity",
      "rootUri": "file:///Users/imac/Downloads/Fluttersdk/flutter-1.22.5/.pub-cache/hosted/pub.dartlang.org/connectivity-2.0.2",
      "packageUri": "lib/",
      "languageVersion": "2.1"
    },
    {
      "name": "connectivity_for_web",
      "rootUri": "file:///Users/imac/Downloads/Fluttersdk/flutter-1.22.5/.pub-cache/hosted/pub.dartlang.org/connectivity_for_web-0.3.1+4",
      "packageUri": "lib/",
      "languageVersion": "2.6"
    },
    {
      "name": "connectivity_macos",
      "rootUri": "file:///Users/imac/Downloads/Fluttersdk/flutter-1.22.5/.pub-cache/hosted/pub.dartlang.org/connectivity_macos-0.1.0+7",
      "packageUri": "lib/",
      "languageVersion": "2.1"
    },
    {
      "name": "connectivity_platform_interface",
      "rootUri": "file:///Users/imac/Downloads/Fluttersdk/flutter-1.22.5/.pub-cache/hosted/pub.dartlang.org/connectivity_platform_interface-1.0.6",
      "packageUri": "lib/",
      "languageVersion": "2.1"
    },
    {
      "name": "convert",
      "rootUri": "file:///Users/imac/Downloads/Fluttersdk/flutter-1.22.5/.pub-cache/hosted/pub.dartlang.org/convert-2.1.1",
      "packageUri": "lib/",
      "languageVersion": "1.17"
    },
    {
      "name": "crypto",
      "rootUri": "file:///Users/imac/Downloads/Fluttersdk/flutter-1.22.5/.pub-cache/hosted/pub.dartlang.org/crypto-2.1.5",
      "packageUri": "lib/",
      "languageVersion": "2.3"
    },
    {
      "name": "cupertino_icons",
      "rootUri": "file:///Users/imac/Downloads/Fluttersdk/flutter-1.22.5/.pub-cache/hosted/pub.dartlang.org/cupertino_icons-1.0.0",
      "packageUri": "lib/",
      "languageVersion": "2.0"
    },
    {
      "name": "dart_style",
      "rootUri": "file:///Users/imac/Downloads/Fluttersdk/flutter-1.22.5/.pub-cache/hosted/pub.dartlang.org/dart_style-1.3.12",
      "packageUri": "lib/",
      "languageVersion": "2.9"
    },
    {
      "name": "double_back_to_close_app",
      "rootUri": "file:///Users/imac/Downloads/Fluttersdk/flutter-1.22.5/.pub-cache/hosted/pub.dartlang.org/double_back_to_close_app-1.2.0",
      "packageUri": "lib/",
      "languageVersion": "2.0"
    },
    {
      "name": "email_launcher",
      "rootUri": "file:///Users/imac/Downloads/Fluttersdk/flutter-1.22.5/.pub-cache/hosted/pub.dartlang.org/email_launcher-1.0.0",
      "packageUri": "lib/",
      "languageVersion": "2.1"
    },
    {
      "name": "equatable",
      "rootUri": "file:///Users/imac/Downloads/Fluttersdk/flutter-1.22.5/.pub-cache/hosted/pub.dartlang.org/equatable-1.2.6",
      "packageUri": "lib/",
      "languageVersion": "2.0"
    },
    {
      "name": "fake_async",
      "rootUri": "file:///Users/imac/Downloads/Fluttersdk/flutter-1.22.5/.pub-cache/hosted/pub.dartlang.org/fake_async-1.2.0-nullsafety.1",
      "packageUri": "lib/",
      "languageVersion": "2.10"
    },
    {
      "name": "ffi",
      "rootUri": "file:///Users/imac/Downloads/Fluttersdk/flutter-1.22.5/.pub-cache/hosted/pub.dartlang.org/ffi-0.1.3",
      "packageUri": "lib/",
      "languageVersion": "2.6"
    },
    {
      "name": "file",
      "rootUri": "file:///Users/imac/Downloads/Fluttersdk/flutter-1.22.5/.pub-cache/hosted/pub.dartlang.org/file-5.2.1",
      "packageUri": "lib/",
      "languageVersion": "2.2"
    },
    {
      "name": "firebase",
      "rootUri": "file:///Users/imac/Downloads/Fluttersdk/flutter-1.22.5/.pub-cache/hosted/pub.dartlang.org/firebase-7.3.3",
      "packageUri": "lib/",
      "languageVersion": "2.7"
    },
    {
      "name": "firebase_analytics",
      "rootUri": "file:///Users/imac/Downloads/Fluttersdk/flutter-1.22.5/.pub-cache/hosted/pub.dartlang.org/firebase_analytics-6.3.0",
      "packageUri": "lib/",
      "languageVersion": "2.1"
    },
    {
      "name": "firebase_analytics_platform_interface",
      "rootUri": "file:///Users/imac/Downloads/Fluttersdk/flutter-1.22.5/.pub-cache/hosted/pub.dartlang.org/firebase_analytics_platform_interface-1.0.3",
      "packageUri": "lib/",
      "languageVersion": "2.0"
    },
    {
      "name": "firebase_analytics_web",
      "rootUri": "file:///Users/imac/Downloads/Fluttersdk/flutter-1.22.5/.pub-cache/hosted/pub.dartlang.org/firebase_analytics_web-0.1.1",
      "packageUri": "lib/",
      "languageVersion": "2.7"
    },
    {
      "name": "firebase_auth",
      "rootUri": "file:///Users/imac/Downloads/Fluttersdk/flutter-1.22.5/.pub-cache/hosted/pub.dartlang.org/firebase_auth-0.18.4+1",
      "packageUri": "lib/",
      "languageVersion": "2.0"
    },
    {
      "name": "firebase_auth_platform_interface",
      "rootUri": "file:///Users/imac/Downloads/Fluttersdk/flutter-1.22.5/.pub-cache/hosted/pub.dartlang.org/firebase_auth_platform_interface-2.1.4",
      "packageUri": "lib/",
      "languageVersion": "2.0"
    },
    {
      "name": "firebase_auth_web",
      "rootUri": "file:///Users/imac/Downloads/Fluttersdk/flutter-1.22.5/.pub-cache/hosted/pub.dartlang.org/firebase_auth_web-0.3.2+3",
      "packageUri": "lib/",
      "languageVersion": "2.0"
    },
    {
      "name": "firebase_core",
      "rootUri": "file:///Users/imac/Downloads/Fluttersdk/flutter-1.22.5/.pub-cache/hosted/pub.dartlang.org/firebase_core-0.5.3",
      "packageUri": "lib/",
      "languageVersion": "2.1"
    },
    {
      "name": "firebase_core_platform_interface",
      "rootUri": "file:///Users/imac/Downloads/Fluttersdk/flutter-1.22.5/.pub-cache/hosted/pub.dartlang.org/firebase_core_platform_interface-2.1.0",
      "packageUri": "lib/",
      "languageVersion": "2.1"
    },
    {
      "name": "firebase_core_web",
      "rootUri": "file:///Users/imac/Downloads/Fluttersdk/flutter-1.22.5/.pub-cache/hosted/pub.dartlang.org/firebase_core_web-0.2.1+1",
      "packageUri": "lib/",
      "languageVersion": "2.1"
    },
    {
      "name": "firebase_database",
      "rootUri": "file:///Users/imac/Downloads/Fluttersdk/flutter-1.22.5/.pub-cache/hosted/pub.dartlang.org/firebase_database-4.4.0",
      "packageUri": "lib/",
      "languageVersion": "2.0"
    },
    {
      "name": "firebase_messaging",
      "rootUri": "file:///Users/imac/Downloads/Fluttersdk/flutter-1.22.5/.pub-cache/hosted/pub.dartlang.org/firebase_messaging-7.0.3",
      "packageUri": "lib/",
      "languageVersion": "2.0"
    },
    {
      "name": "firebase_storage",
      "rootUri": "file:///Users/imac/Downloads/Fluttersdk/flutter-1.22.5/.pub-cache/hosted/pub.dartlang.org/firebase_storage-5.2.0",
      "packageUri": "lib/",
      "languageVersion": "2.0"
    },
    {
      "name": "firebase_storage_platform_interface",
      "rootUri": "file:///Users/imac/Downloads/Fluttersdk/flutter-1.22.5/.pub-cache/hosted/pub.dartlang.org/firebase_storage_platform_interface-1.0.2",
      "packageUri": "lib/",
      "languageVersion": "2.0"
    },
    {
      "name": "firebase_storage_web",
      "rootUri": "file:///Users/imac/Downloads/Fluttersdk/flutter-1.22.5/.pub-cache/hosted/pub.dartlang.org/firebase_storage_web-0.1.1+1",
      "packageUri": "lib/",
      "languageVersion": "2.7"
    },
    {
      "name": "fixnum",
      "rootUri": "file:///Users/imac/Downloads/Fluttersdk/flutter-1.22.5/.pub-cache/hosted/pub.dartlang.org/fixnum-0.10.11",
      "packageUri": "lib/",
      "languageVersion": "2.1"
    },
    {
      "name": "flutter",
      "rootUri": "file:///Users/imac/Downloads/Fluttersdk/flutter-1.22.5/packages/flutter",
      "packageUri": "lib/",
      "languageVersion": "2.10"
    },
    {
      "name": "flutter_blurhash",
      "rootUri": "file:///Users/imac/Downloads/Fluttersdk/flutter-1.22.5/.pub-cache/hosted/pub.dartlang.org/flutter_blurhash-0.5.0",
      "packageUri": "lib/",
      "languageVersion": "2.4"
    },
    {
      "name": "flutter_cache_manager",
      "rootUri": "file:///Users/imac/Downloads/Fluttersdk/flutter-1.22.5/.pub-cache/hosted/pub.dartlang.org/flutter_cache_manager-2.1.2",
      "packageUri": "lib/",
      "languageVersion": "2.6"
    },
    {
      "name": "flutter_easyloading",
      "rootUri": "file:///Users/imac/Downloads/Fluttersdk/flutter-1.22.5/.pub-cache/hosted/pub.dartlang.org/flutter_easyloading-2.2.2",
      "packageUri": "lib/",
      "languageVersion": "2.2"
    },
    {
      "name": "flutter_google_places",
      "rootUri": "file:///Users/imac/Downloads/Fluttersdk/flutter-1.22.5/.pub-cache/hosted/pub.dartlang.org/flutter_google_places-0.2.8",
      "packageUri": "lib/",
      "languageVersion": "2.0"
    },
    {
      "name": "flutter_inappwebview",
      "rootUri": "file:///Users/imac/Downloads/Fluttersdk/flutter-1.22.5/.pub-cache/hosted/pub.dartlang.org/flutter_inappwebview-4.0.0+4",
      "packageUri": "lib/",
      "languageVersion": "2.7"
    },
    {
      "name": "flutter_ios_voip_kit",
      "rootUri": "file:///Users/imac/Downloads/Fluttersdk/flutter-1.22.5/.pub-cache/hosted/pub.dartlang.org/flutter_ios_voip_kit-0.0.5",
      "packageUri": "lib/",
      "languageVersion": "2.7"
    },
    {
      "name": "flutter_local_notifications",
      "rootUri": "file:///Users/imac/Downloads/Fluttersdk/flutter-1.22.5/.pub-cache/hosted/pub.dartlang.org/flutter_local_notifications-3.0.3",
      "packageUri": "lib/",
      "languageVersion": "2.6"
    },
    {
      "name": "flutter_local_notifications_platform_interface",
      "rootUri": "file:///Users/imac/Downloads/Fluttersdk/flutter-1.22.5/.pub-cache/hosted/pub.dartlang.org/flutter_local_notifications_platform_interface-2.0.0+1",
      "packageUri": "lib/",
      "languageVersion": "2.1"
    },
    {
      "name": "flutter_phone_direct_caller",
      "rootUri": "file:///Users/imac/Downloads/Fluttersdk/flutter-1.22.5/.pub-cache/hosted/pub.dartlang.org/flutter_phone_direct_caller-1.0.1",
      "packageUri": "lib/",
      "languageVersion": "2.0"
    },
    {
      "name": "flutter_plugin_android_lifecycle",
      "rootUri": "file:///Users/imac/Downloads/Fluttersdk/flutter-1.22.5/.pub-cache/hosted/pub.dartlang.org/flutter_plugin_android_lifecycle-1.0.11",
      "packageUri": "lib/",
      "languageVersion": "2.1"
    },
    {
      "name": "flutter_slidable",
      "rootUri": "file:///Users/imac/Downloads/Fluttersdk/flutter-1.22.5/.pub-cache/hosted/pub.dartlang.org/flutter_slidable-0.5.7",
      "packageUri": "lib/",
      "languageVersion": "1.19"
    },
    {
      "name": "flutter_spinkit",
      "rootUri": "file:///Users/imac/Downloads/Fluttersdk/flutter-1.22.5/.pub-cache/hosted/pub.dartlang.org/flutter_spinkit-4.1.2+1",
      "packageUri": "lib/",
      "languageVersion": "2.5"
    },
    {
      "name": "flutter_test",
      "rootUri": "file:///Users/imac/Downloads/Fluttersdk/flutter-1.22.5/packages/flutter_test",
      "packageUri": "lib/",
      "languageVersion": "2.2"
    },
    {
      "name": "flutter_web_plugins",
      "rootUri": "file:///Users/imac/Downloads/Fluttersdk/flutter-1.22.5/packages/flutter_web_plugins",
      "packageUri": "lib/",
      "languageVersion": "2.0"
    },
    {
      "name": "flutter_webview_plugin",
      "rootUri": "file:///Users/imac/Downloads/Fluttersdk/flutter-1.22.5/.pub-cache/hosted/pub.dartlang.org/flutter_webview_plugin-0.3.11",
      "packageUri": "lib/",
      "languageVersion": "2.0"
    },
    {
      "name": "flutter_youtube_view",
      "rootUri": "file:///Users/imac/Downloads/Fluttersdk/flutter-1.22.5/.pub-cache/hosted/pub.dartlang.org/flutter_youtube_view-1.1.10",
      "packageUri": "lib/",
      "languageVersion": "2.1"
    },
    {
      "name": "fluttertoast",
      "rootUri": "file:///Users/imac/Downloads/Fluttersdk/flutter-1.22.5/.pub-cache/hosted/pub.dartlang.org/fluttertoast-7.1.8",
      "packageUri": "lib/",
      "languageVersion": "2.7"
    },
    {
      "name": "geocoder",
      "rootUri": "file:///Users/imac/Downloads/Fluttersdk/flutter-1.22.5/.pub-cache/hosted/pub.dartlang.org/geocoder-0.2.1",
      "packageUri": "lib/",
      "languageVersion": "2.0"
    },
    {
      "name": "geolocator",
      "rootUri": "file:///Users/imac/Downloads/Fluttersdk/flutter-1.22.5/.pub-cache/hosted/pub.dartlang.org/geolocator-5.3.2+2",
      "packageUri": "lib/",
      "languageVersion": "2.1"
    },
    {
      "name": "glob",
      "rootUri": "file:///Users/imac/Downloads/Fluttersdk/flutter-1.22.5/.pub-cache/hosted/pub.dartlang.org/glob-1.2.0",
      "packageUri": "lib/",
      "languageVersion": "2.1"
    },
    {
      "name": "google_api_availability",
      "rootUri": "file:///Users/imac/Downloads/Fluttersdk/flutter-1.22.5/.pub-cache/hosted/pub.dartlang.org/google_api_availability-2.0.4",
      "packageUri": "lib/",
      "languageVersion": "2.3"
    },
    {
      "name": "google_api_headers",
      "rootUri": "file:///Users/imac/Downloads/Fluttersdk/flutter-1.22.5/.pub-cache/hosted/pub.dartlang.org/google_api_headers-0.1.1+2",
      "packageUri": "lib/",
      "languageVersion": "2.7"
    },
    {
      "name": "google_maps_flutter",
      "rootUri": "file:///Users/imac/Downloads/Fluttersdk/flutter-1.22.5/.pub-cache/hosted/pub.dartlang.org/google_maps_flutter-1.2.0",
      "packageUri": "lib/",
      "languageVersion": "2.1"
    },
    {
      "name": "google_maps_flutter_platform_interface",
      "rootUri": "file:///Users/imac/Downloads/Fluttersdk/flutter-1.22.5/.pub-cache/hosted/pub.dartlang.org/google_maps_flutter_platform_interface-1.2.0",
      "packageUri": "lib/",
      "languageVersion": "2.3"
    },
    {
      "name": "google_maps_webservice",
      "rootUri": "file:///Users/imac/Downloads/Fluttersdk/flutter-1.22.5/.pub-cache/hosted/pub.dartlang.org/google_maps_webservice-0.0.19",
      "packageUri": "lib/",
      "languageVersion": "1.20"
    },
    {
      "name": "graphs",
      "rootUri": "file:///Users/imac/Downloads/Fluttersdk/flutter-1.22.5/.pub-cache/hosted/pub.dartlang.org/graphs-0.2.0",
      "packageUri": "lib/",
      "languageVersion": "2.0"
    },
    {
      "name": "http",
      "rootUri": "file:///Users/imac/Downloads/Fluttersdk/flutter-1.22.5/.pub-cache/hosted/pub.dartlang.org/http-0.12.2",
      "packageUri": "lib/",
      "languageVersion": "2.4"
    },
    {
      "name": "http_multi_server",
      "rootUri": "file:///Users/imac/Downloads/Fluttersdk/flutter-1.22.5/.pub-cache/hosted/pub.dartlang.org/http_multi_server-2.2.0",
      "packageUri": "lib/",
      "languageVersion": "2.1"
    },
    {
      "name": "http_parser",
      "rootUri": "file:///Users/imac/Downloads/Fluttersdk/flutter-1.22.5/.pub-cache/hosted/pub.dartlang.org/http_parser-3.1.4",
      "packageUri": "lib/",
      "languageVersion": "2.3"
    },
    {
      "name": "image",
      "rootUri": "file:///Users/imac/Downloads/Fluttersdk/flutter-1.22.5/.pub-cache/hosted/pub.dartlang.org/image-2.1.19",
      "packageUri": "lib/",
      "languageVersion": "2.0"
    },
    {
      "name": "image_picker",
      "rootUri": "file:///Users/imac/Downloads/Fluttersdk/flutter-1.22.5/.pub-cache/hosted/pub.dartlang.org/image_picker-0.6.7+22",
      "packageUri": "lib/",
      "languageVersion": "2.1"
    },
    {
      "name": "image_picker_platform_interface",
      "rootUri": "file:///Users/imac/Downloads/Fluttersdk/flutter-1.22.5/.pub-cache/hosted/pub.dartlang.org/image_picker_platform_interface-1.1.6",
      "packageUri": "lib/",
      "languageVersion": "2.5"
    },
    {
      "name": "intl",
      "rootUri": "file:///Users/imac/Downloads/Fluttersdk/flutter-1.22.5/.pub-cache/hosted/pub.dartlang.org/intl-0.16.1",
      "packageUri": "lib/",
      "languageVersion": "2.5"
    },
    {
      "name": "io",
      "rootUri": "file:///Users/imac/Downloads/Fluttersdk/flutter-1.22.5/.pub-cache/hosted/pub.dartlang.org/io-0.3.5",
      "packageUri": "lib/",
      "languageVersion": "2.1"
    },
    {
      "name": "js",
      "rootUri": "file:///Users/imac/Downloads/Fluttersdk/flutter-1.22.5/.pub-cache/hosted/pub.dartlang.org/js-0.6.2",
      "packageUri": "lib/",
      "languageVersion": "2.0"
    },
    {
      "name": "json_annotation",
      "rootUri": "file:///Users/imac/Downloads/Fluttersdk/flutter-1.22.5/.pub-cache/hosted/pub.dartlang.org/json_annotation-3.1.1",
      "packageUri": "lib/",
      "languageVersion": "2.7"
    },
    {
      "name": "json_serializable",
      "rootUri": "file:///Users/imac/Downloads/Fluttersdk/flutter-1.22.5/.pub-cache/hosted/pub.dartlang.org/json_serializable-3.5.1",
      "packageUri": "lib/",
      "languageVersion": "2.7"
    },
    {
      "name": "just_audio",
      "rootUri": "file:///Users/imac/Downloads/Fluttersdk/flutter-1.22.5/.pub-cache/hosted/pub.dartlang.org/just_audio-0.6.15+1",
      "packageUri": "lib/",
      "languageVersion": "2.7"
    },
    {
      "name": "just_audio_platform_interface",
      "rootUri": "file:///Users/imac/Downloads/Fluttersdk/flutter-1.22.5/.pub-cache/hosted/pub.dartlang.org/just_audio_platform_interface-2.0.1",
      "packageUri": "lib/",
      "languageVersion": "2.7"
    },
    {
      "name": "just_audio_web",
      "rootUri": "file:///Users/imac/Downloads/Fluttersdk/flutter-1.22.5/.pub-cache/hosted/pub.dartlang.org/just_audio_web-0.2.3",
      "packageUri": "lib/",
      "languageVersion": "2.7"
    },
    {
      "name": "location_permissions",
      "rootUri": "file:///Users/imac/Downloads/Fluttersdk/flutter-1.22.5/.pub-cache/hosted/pub.dartlang.org/location_permissions-3.0.0+1",
      "packageUri": "lib/",
      "languageVersion": "2.1"
    },
    {
      "name": "logging",
      "rootUri": "file:///Users/imac/Downloads/Fluttersdk/flutter-1.22.5/.pub-cache/hosted/pub.dartlang.org/logging-0.11.4",
      "packageUri": "lib/",
      "languageVersion": "2.0"
    },
    {
      "name": "matcher",
      "rootUri": "file:///Users/imac/Downloads/Fluttersdk/flutter-1.22.5/.pub-cache/hosted/pub.dartlang.org/matcher-0.12.10-nullsafety.1",
      "packageUri": "lib/",
      "languageVersion": "2.10"
    },
    {
      "name": "meta",
      "rootUri": "file:///Users/imac/Downloads/Fluttersdk/flutter-1.22.5/.pub-cache/hosted/pub.dartlang.org/meta-1.3.0-nullsafety.3",
      "packageUri": "lib/",
      "languageVersion": "2.10"
    },
    {
      "name": "mime",
      "rootUri": "file:///Users/imac/Downloads/Fluttersdk/flutter-1.22.5/.pub-cache/hosted/pub.dartlang.org/mime-0.9.7",
      "packageUri": "lib/",
      "languageVersion": "2.0"
    },
    {
      "name": "node_interop",
      "rootUri": "file:///Users/imac/Downloads/Fluttersdk/flutter-1.22.5/.pub-cache/hosted/pub.dartlang.org/node_interop-1.2.1",
      "packageUri": "lib/",
      "languageVersion": "2.9"
    },
    {
      "name": "node_io",
      "rootUri": "file:///Users/imac/Downloads/Fluttersdk/flutter-1.22.5/.pub-cache/hosted/pub.dartlang.org/node_io-1.2.0",
      "packageUri": "lib/",
      "languageVersion": "2.2"
    },
    {
      "name": "octo_image",
      "rootUri": "file:///Users/imac/Downloads/Fluttersdk/flutter-1.22.5/.pub-cache/hosted/pub.dartlang.org/octo_image-0.3.0",
      "packageUri": "lib/",
      "languageVersion": "2.7"
    },
    {
      "name": "package_config",
      "rootUri": "file:///Users/imac/Downloads/Fluttersdk/flutter-1.22.5/.pub-cache/hosted/pub.dartlang.org/package_config-1.9.3",
      "packageUri": "lib/",
      "languageVersion": "2.7"
    },
    {
      "name": "package_info",
      "rootUri": "file:///Users/imac/Downloads/Fluttersdk/flutter-1.22.5/.pub-cache/hosted/pub.dartlang.org/package_info-0.4.3+4",
      "packageUri": "lib/",
      "languageVersion": "2.1"
    },
    {
      "name": "path",
      "rootUri": "file:///Users/imac/Downloads/Fluttersdk/flutter-1.22.5/.pub-cache/hosted/pub.dartlang.org/path-1.8.0-nullsafety.1",
      "packageUri": "lib/",
      "languageVersion": "2.10"
    },
    {
      "name": "path_provider",
      "rootUri": "file:///Users/imac/Downloads/Fluttersdk/flutter-1.22.5/.pub-cache/hosted/pub.dartlang.org/path_provider-1.6.28",
      "packageUri": "lib/",
      "languageVersion": "2.1"
    },
    {
      "name": "path_provider_linux",
      "rootUri": "file:///Users/imac/Downloads/Fluttersdk/flutter-1.22.5/.pub-cache/hosted/pub.dartlang.org/path_provider_linux-0.0.1+2",
      "packageUri": "lib/",
      "languageVersion": "2.1"
    },
    {
      "name": "path_provider_macos",
      "rootUri": "file:///Users/imac/Downloads/Fluttersdk/flutter-1.22.5/.pub-cache/hosted/pub.dartlang.org/path_provider_macos-0.0.4+8",
      "packageUri": "lib/",
      "languageVersion": "2.1"
    },
    {
      "name": "path_provider_platform_interface",
      "rootUri": "file:///Users/imac/Downloads/Fluttersdk/flutter-1.22.5/.pub-cache/hosted/pub.dartlang.org/path_provider_platform_interface-1.0.4",
      "packageUri": "lib/",
      "languageVersion": "2.1"
    },
    {
      "name": "path_provider_windows",
      "rootUri": "file:///Users/imac/Downloads/Fluttersdk/flutter-1.22.5/.pub-cache/hosted/pub.dartlang.org/path_provider_windows-0.0.4+3",
      "packageUri": "lib/",
      "languageVersion": "2.1"
    },
    {
      "name": "pedantic",
      "rootUri": "file:///Users/imac/Downloads/Fluttersdk/flutter-1.22.5/.pub-cache/hosted/pub.dartlang.org/pedantic-1.9.2",
      "packageUri": "lib/",
      "languageVersion": "2.1"
    },
    {
      "name": "permission_handler",
      "rootUri": "file:///Users/imac/Downloads/Fluttersdk/flutter-1.22.5/.pub-cache/hosted/pub.dartlang.org/permission_handler-5.1.0+2",
      "packageUri": "lib/",
      "languageVersion": "2.7"
    },
    {
      "name": "permission_handler_platform_interface",
      "rootUri": "file:///Users/imac/Downloads/Fluttersdk/flutter-1.22.5/.pub-cache/hosted/pub.dartlang.org/permission_handler_platform_interface-2.0.2",
      "packageUri": "lib/",
      "languageVersion": "2.6"
    },
    {
      "name": "petitparser",
      "rootUri": "file:///Users/imac/Downloads/Fluttersdk/flutter-1.22.5/.pub-cache/hosted/pub.dartlang.org/petitparser-3.1.0",
      "packageUri": "lib/",
      "languageVersion": "2.7"
    },
    {
      "name": "platform",
      "rootUri": "file:///Users/imac/Downloads/Fluttersdk/flutter-1.22.5/.pub-cache/hosted/pub.dartlang.org/platform-2.2.1",
      "packageUri": "lib/",
      "languageVersion": "1.24"
    },
    {
      "name": "plugin_platform_interface",
      "rootUri": "file:///Users/imac/Downloads/Fluttersdk/flutter-1.22.5/.pub-cache/hosted/pub.dartlang.org/plugin_platform_interface-1.0.3",
      "packageUri": "lib/",
      "languageVersion": "2.1"
    },
    {
      "name": "pool",
      "rootUri": "file:///Users/imac/Downloads/Fluttersdk/flutter-1.22.5/.pub-cache/hosted/pub.dartlang.org/pool-1.4.0",
      "packageUri": "lib/",
      "languageVersion": "2.0"
    },
    {
      "name": "process",
      "rootUri": "file:///Users/imac/Downloads/Fluttersdk/flutter-1.22.5/.pub-cache/hosted/pub.dartlang.org/process-3.0.13",
      "packageUri": "lib/",
      "languageVersion": "2.0"
    },
    {
      "name": "progress_dialog",
      "rootUri": "file:///Users/imac/Downloads/Fluttersdk/flutter-1.22.5/.pub-cache/hosted/pub.dartlang.org/progress_dialog-1.2.4",
      "packageUri": "lib/",
      "languageVersion": "2.7"
    },
    {
      "name": "pub_semver",
      "rootUri": "file:///Users/imac/Downloads/Fluttersdk/flutter-1.22.5/.pub-cache/hosted/pub.dartlang.org/pub_semver-1.4.4",
      "packageUri": "lib/",
      "languageVersion": "2.0"
    },
    {
      "name": "pubspec_parse",
      "rootUri": "file:///Users/imac/Downloads/Fluttersdk/flutter-1.22.5/.pub-cache/hosted/pub.dartlang.org/pubspec_parse-0.1.8",
      "packageUri": "lib/",
      "languageVersion": "2.7"
    },
    {
      "name": "quiver",
      "rootUri": "file:///Users/imac/Downloads/Fluttersdk/flutter-1.22.5/.pub-cache/hosted/pub.dartlang.org/quiver-2.1.5",
      "packageUri": "lib/",
      "languageVersion": "2.0"
    },
    {
      "name": "readmore",
      "rootUri": "file:///Users/imac/Downloads/Fluttersdk/flutter-1.22.5/.pub-cache/hosted/pub.dartlang.org/readmore-1.0.1",
      "packageUri": "lib/",
      "languageVersion": "2.1"
    },
    {
      "name": "responsive_flutter",
      "rootUri": "file:///Users/imac/Downloads/Fluttersdk/flutter-1.22.5/.pub-cache/hosted/pub.dartlang.org/responsive_flutter-0.0.4",
      "packageUri": "lib/",
      "languageVersion": "2.1"
    },
    {
      "name": "rxdart",
      "rootUri": "file:///Users/imac/Downloads/Fluttersdk/flutter-1.22.5/.pub-cache/hosted/pub.dartlang.org/rxdart-0.25.0",
      "packageUri": "lib/",
      "languageVersion": "2.6"
    },
    {
      "name": "selectable_autolink_text",
      "rootUri": "file:///Users/imac/Downloads/Fluttersdk/flutter-1.22.5/.pub-cache/hosted/pub.dartlang.org/selectable_autolink_text-1.3.7+1",
      "packageUri": "lib/",
      "languageVersion": "2.8"
    },
    {
      "name": "shared_preferences",
      "rootUri": "file:///Users/imac/Downloads/Fluttersdk/flutter-1.22.5/.pub-cache/hosted/pub.dartlang.org/shared_preferences-0.5.12+4",
      "packageUri": "lib/",
      "languageVersion": "2.1"
    },
    {
      "name": "shared_preferences_linux",
      "rootUri": "file:///Users/imac/Downloads/Fluttersdk/flutter-1.22.5/.pub-cache/hosted/pub.dartlang.org/shared_preferences_linux-0.0.2+4",
      "packageUri": "lib/",
      "languageVersion": "2.1"
    },
    {
      "name": "shared_preferences_macos",
      "rootUri": "file:///Users/imac/Downloads/Fluttersdk/flutter-1.22.5/.pub-cache/hosted/pub.dartlang.org/shared_preferences_macos-0.0.1+11",
      "packageUri": "lib/",
      "languageVersion": "2.1"
    },
    {
      "name": "shared_preferences_platform_interface",
      "rootUri": "file:///Users/imac/Downloads/Fluttersdk/flutter-1.22.5/.pub-cache/hosted/pub.dartlang.org/shared_preferences_platform_interface-1.0.4",
      "packageUri": "lib/",
      "languageVersion": "2.1"
    },
    {
      "name": "shared_preferences_web",
      "rootUri": "file:///Users/imac/Downloads/Fluttersdk/flutter-1.22.5/.pub-cache/hosted/pub.dartlang.org/shared_preferences_web-0.1.2+7",
      "packageUri": "lib/",
      "languageVersion": "2.1"
    },
    {
      "name": "shared_preferences_windows",
      "rootUri": "file:///Users/imac/Downloads/Fluttersdk/flutter-1.22.5/.pub-cache/hosted/pub.dartlang.org/shared_preferences_windows-0.0.2+3",
      "packageUri": "lib/",
      "languageVersion": "2.1"
    },
    {
      "name": "shelf",
      "rootUri": "file:///Users/imac/Downloads/Fluttersdk/flutter-1.22.5/.pub-cache/hosted/pub.dartlang.org/shelf-0.7.9",
      "packageUri": "lib/",
      "languageVersion": "2.1"
    },
    {
      "name": "shelf_web_socket",
      "rootUri": "file:///Users/imac/Downloads/Fluttersdk/flutter-1.22.5/.pub-cache/hosted/pub.dartlang.org/shelf_web_socket-0.2.4+1",
      "packageUri": "lib/",
      "languageVersion": "2.1"
    },
    {
      "name": "sky_engine",
      "rootUri": "file:///Users/imac/Downloads/Fluttersdk/flutter-1.22.5/bin/cache/pkg/sky_engine",
      "packageUri": "lib/",
      "languageVersion": "1.11"
    },
    {
      "name": "source_gen",
      "rootUri": "file:///Users/imac/Downloads/Fluttersdk/flutter-1.22.5/.pub-cache/hosted/pub.dartlang.org/source_gen-0.9.10+3",
      "packageUri": "lib/",
      "languageVersion": "2.10"
    },
    {
      "name": "source_span",
      "rootUri": "file:///Users/imac/Downloads/Fluttersdk/flutter-1.22.5/.pub-cache/hosted/pub.dartlang.org/source_span-1.8.0-nullsafety.2",
      "packageUri": "lib/",
      "languageVersion": "2.10"
    },
    {
      "name": "sqflite",
      "rootUri": "file:///Users/imac/Downloads/Fluttersdk/flutter-1.22.5/.pub-cache/hosted/pub.dartlang.org/sqflite-1.3.2+4",
      "packageUri": "lib/",
      "languageVersion": "2.10"
    },
    {
      "name": "sqflite_common",
      "rootUri": "file:///Users/imac/Downloads/Fluttersdk/flutter-1.22.5/.pub-cache/hosted/pub.dartlang.org/sqflite_common-1.0.3+3",
      "packageUri": "lib/",
      "languageVersion": "2.7"
    },
    {
      "name": "stack_trace",
      "rootUri": "file:///Users/imac/Downloads/Fluttersdk/flutter-1.22.5/.pub-cache/hosted/pub.dartlang.org/stack_trace-1.10.0-nullsafety.1",
      "packageUri": "lib/",
      "languageVersion": "2.10"
    },
    {
      "name": "stream_channel",
      "rootUri": "file:///Users/imac/Downloads/Fluttersdk/flutter-1.22.5/.pub-cache/hosted/pub.dartlang.org/stream_channel-2.1.0-nullsafety.1",
      "packageUri": "lib/",
      "languageVersion": "2.10"
    },
    {
      "name": "stream_transform",
      "rootUri": "file:///Users/imac/Downloads/Fluttersdk/flutter-1.22.5/.pub-cache/hosted/pub.dartlang.org/stream_transform-1.2.0",
      "packageUri": "lib/",
      "languageVersion": "2.6"
    },
    {
      "name": "string_scanner",
      "rootUri": "file:///Users/imac/Downloads/Fluttersdk/flutter-1.22.5/.pub-cache/hosted/pub.dartlang.org/string_scanner-1.1.0-nullsafety.1",
      "packageUri": "lib/",
      "languageVersion": "2.10"
    },
    {
      "name": "synchronized",
      "rootUri": "file:///Users/imac/Downloads/Fluttersdk/flutter-1.22.5/.pub-cache/hosted/pub.dartlang.org/synchronized-2.2.0+2",
      "packageUri": "lib/",
      "languageVersion": "2.8"
    },
    {
      "name": "term_glyph",
      "rootUri": "file:///Users/imac/Downloads/Fluttersdk/flutter-1.22.5/.pub-cache/hosted/pub.dartlang.org/term_glyph-1.2.0-nullsafety.1",
      "packageUri": "lib/",
      "languageVersion": "2.10"
    },
    {
      "name": "test_api",
      "rootUri": "file:///Users/imac/Downloads/Fluttersdk/flutter-1.22.5/.pub-cache/hosted/pub.dartlang.org/test_api-0.2.19-nullsafety.2",
      "packageUri": "lib/",
      "languageVersion": "2.10"
    },
    {
      "name": "timezone",
      "rootUri": "file:///Users/imac/Downloads/Fluttersdk/flutter-1.22.5/.pub-cache/hosted/pub.dartlang.org/timezone-0.5.9",
      "packageUri": "lib/",
      "languageVersion": "2.1"
    },
    {
      "name": "timing",
      "rootUri": "file:///Users/imac/Downloads/Fluttersdk/flutter-1.22.5/.pub-cache/hosted/pub.dartlang.org/timing-0.1.1+3",
      "packageUri": "lib/",
      "languageVersion": "2.2"
    },
    {
      "name": "typed_data",
      "rootUri": "file:///Users/imac/Downloads/Fluttersdk/flutter-1.22.5/.pub-cache/hosted/pub.dartlang.org/typed_data-1.3.0-nullsafety.3",
      "packageUri": "lib/",
      "languageVersion": "2.10"
    },
    {
      "name": "url_launcher",
      "rootUri": "file:///Users/imac/Downloads/Fluttersdk/flutter-1.22.5/.pub-cache/hosted/pub.dartlang.org/url_launcher-5.7.10",
      "packageUri": "lib/",
      "languageVersion": "2.1"
    },
    {
      "name": "url_launcher_linux",
      "rootUri": "file:///Users/imac/Downloads/Fluttersdk/flutter-1.22.5/.pub-cache/hosted/pub.dartlang.org/url_launcher_linux-0.0.1+4",
      "packageUri": "lib/",
      "languageVersion": "2.1"
    },
    {
      "name": "url_launcher_macos",
      "rootUri": "file:///Users/imac/Downloads/Fluttersdk/flutter-1.22.5/.pub-cache/hosted/pub.dartlang.org/url_launcher_macos-0.0.1+9",
      "packageUri": "lib/",
      "languageVersion": "2.1"
    },
    {
      "name": "url_launcher_platform_interface",
      "rootUri": "file:///Users/imac/Downloads/Fluttersdk/flutter-1.22.5/.pub-cache/hosted/pub.dartlang.org/url_launcher_platform_interface-1.0.9",
      "packageUri": "lib/",
      "languageVersion": "2.1"
    },
    {
      "name": "url_launcher_web",
      "rootUri": "file:///Users/imac/Downloads/Fluttersdk/flutter-1.22.5/.pub-cache/hosted/pub.dartlang.org/url_launcher_web-0.1.5+3",
      "packageUri": "lib/",
      "languageVersion": "2.2"
    },
    {
      "name": "url_launcher_windows",
      "rootUri": "file:///Users/imac/Downloads/Fluttersdk/flutter-1.22.5/.pub-cache/hosted/pub.dartlang.org/url_launcher_windows-0.0.1+3",
      "packageUri": "lib/",
      "languageVersion": "2.1"
    },
    {
      "name": "uuid",
      "rootUri": "file:///Users/imac/Downloads/Fluttersdk/flutter-1.22.5/.pub-cache/hosted/pub.dartlang.org/uuid-2.2.2",
      "packageUri": "lib/",
      "languageVersion": "2.2"
    },
    {
      "name": "vector_math",
      "rootUri": "file:///Users/imac/Downloads/Fluttersdk/flutter-1.22.5/.pub-cache/hosted/pub.dartlang.org/vector_math-2.1.0-nullsafety.3",
      "packageUri": "lib/",
      "languageVersion": "2.10"
    },
    {
      "name": "video_player",
      "rootUri": "file:///Users/imac/Downloads/Fluttersdk/flutter-1.22.5/.pub-cache/hosted/pub.dartlang.org/video_player-1.0.1",
      "packageUri": "lib/",
      "languageVersion": "2.8"
    },
    {
      "name": "video_player_platform_interface",
      "rootUri": "file:///Users/imac/Downloads/Fluttersdk/flutter-1.22.5/.pub-cache/hosted/pub.dartlang.org/video_player_platform_interface-2.2.0",
      "packageUri": "lib/",
      "languageVersion": "2.8"
    },
    {
      "name": "video_player_web",
      "rootUri": "file:///Users/imac/Downloads/Fluttersdk/flutter-1.22.5/.pub-cache/hosted/pub.dartlang.org/video_player_web-0.1.4+1",
      "packageUri": "lib/",
      "languageVersion": "2.8"
    },
    {
      "name": "watcher",
      "rootUri": "file:///Users/imac/Downloads/Fluttersdk/flutter-1.22.5/.pub-cache/hosted/pub.dartlang.org/watcher-0.9.7+15",
      "packageUri": "lib/",
      "languageVersion": "2.2"
    },
    {
      "name": "web_socket_channel",
      "rootUri": "file:///Users/imac/Downloads/Fluttersdk/flutter-1.22.5/.pub-cache/hosted/pub.dartlang.org/web_socket_channel-1.2.0",
      "packageUri": "lib/",
      "languageVersion": "2.10"
    },
    {
      "name": "webview_flutter",
      "rootUri": "file:///Users/imac/Downloads/Fluttersdk/flutter-1.22.5/.pub-cache/hosted/pub.dartlang.org/webview_flutter-1.0.7",
      "packageUri": "lib/",
      "languageVersion": "2.7"
    },
    {
      "name": "webview_flutter_plus",
      "rootUri": "file:///Users/imac/Downloads/Fluttersdk/flutter-1.22.5/.pub-cache/hosted/pub.dartlang.org/webview_flutter_plus-0.1.1+10",
      "packageUri": "lib/",
      "languageVersion": "2.7"
    },
    {
      "name": "win32",
      "rootUri": "file:///Users/imac/Downloads/Fluttersdk/flutter-1.22.5/.pub-cache/hosted/pub.dartlang.org/win32-1.7.4+1",
      "packageUri": "lib/",
      "languageVersion": "2.7"
    },
    {
      "name": "xdg_directories",
      "rootUri": "file:///Users/imac/Downloads/Fluttersdk/flutter-1.22.5/.pub-cache/hosted/pub.dartlang.org/xdg_directories-0.1.2",
      "packageUri": "lib/",
      "languageVersion": "2.3"
    },
    {
      "name": "xml",
      "rootUri": "file:///Users/imac/Downloads/Fluttersdk/flutter-1.22.5/.pub-cache/hosted/pub.dartlang.org/xml-4.5.1",
      "packageUri": "lib/",
      "languageVersion": "2.7"
    },
    {
      "name": "yaml",
      "rootUri": "file:///Users/imac/Downloads/Fluttersdk/flutter-1.22.5/.pub-cache/hosted/pub.dartlang.org/yaml-2.2.1",
      "packageUri": "lib/",
      "languageVersion": "2.4"
    },
    {
      "name": "youtube_player_flutter",
      "rootUri": "file:///Users/imac/Downloads/Fluttersdk/flutter-1.22.5/.pub-cache/hosted/pub.dartlang.org/youtube_player_flutter-7.0.0+7",
      "packageUri": "lib/",
      "languageVersion": "2.7"
    },
    {
      "name": "flutter_app",
      "rootUri": "../",
      "packageUri": "lib/",
      "languageVersion": "2.10"
    }
  ],
  "generated": "2021-12-27T11:21:15.896405Z",
  "generator": "pub",
  "generatorVersion": "2.10.4"
}
